<svg xmlns="http://www.w3.org/2000/svg" width="40" height="40" viewBox="0 0 40 40">
  <path id="download_-_2021-12-22T155755.781" data-name="download - 2021-12-22T155755.781" d="M255.435,240.584a2,2,0,0,0-2.82,0l-4.6,4.6-4.58-4.58a2,2,0,0,0-2.82,2.82L245.2,248l-4.58,4.58a2,2,0,1,0,2.82,2.82l4.58-4.58,4.58,4.58a2,2,0,0,0,2.82-2.82l-4.58-4.58,4.58-4.58a2,2,0,0,0,.02-2.84ZM248.015,228a20,20,0,1,0,14.143,5.858A19.995,19.995,0,0,0,248.015,228Zm0,36a16,16,0,1,1,11.314-4.687A16,16,0,0,1,248.015,264Z" transform="translate(-228.016 -228.004)" fill="#aaa"/>
</svg>
